111061589_lab3/fir.vcd
$date
   Sun Oct 22 21:55:58 2023
$end
$version
  2022.1
$end
$timescale
  1ps
$end
$scope module fir_tb $end
$var wire 1 ! awready $end
$var wire 1 " wready $end
$var reg 1 # awvalid $end
$var reg 12 $ awaddr [11:0] $end
$var reg 1 % wvalid $end
$var reg 32 & wdata [31:0] $end
$var wire 1 ' arready $end
$var reg 1 ( rready $end
$var reg 1 ) arvalid $end
$var reg 12 * araddr [11:0] $end
$var wire 1 + rvalid $end
$var wire 32 , rdata [31:0] $end
$var reg 1 - ss_tvalid $end
$var reg 32 . ss_tdata [31:0] $end
$var reg 1 / ss_tlast $end
$var wire 1 0 ss_tready $end
$var reg 1 1 sm_tready $end
$var wire 1 2 sm_tvalid $end
$var wire 32 3 sm_tdata [31:0] $end
$var wire 1 4 sm_tlast $end
$var reg 1 5 axis_clk $end
$var reg 1 6 axis_rst_n $end
$var wire 4 7 tap_WE [3:0] $end
$var wire 1 8 tap_EN $end
$var wire 32 9 tap_Di [31:0] $end
$var wire 12 : tap_A [11:0] $end
$var wire 32 ; tap_Do [31:0] $end
$var wire 4 < data_WE [3:0] $end
$var wire 1 = data_EN $end
$var wire 32 > data_Di [31:0] $end
$var wire 12 ? data_A [11:0] $end
$var wire 32 @ data_Do [31:0] $end
$var reg 32 A data_length [31:0] $end
$var integer 32 B Din [31:0] $end
$var integer 32 C golden [31:0] $end
$var integer 32 D input_data [31:0] $end
$var integer 32 E golden_data [31:0] $end
$var integer 32 F m [31:0] $end
$var integer 32 G i [31:0] $end
$var integer 32 H k [31:0] $end
$var reg 1 I error $end
$var reg 1 J status_error $end
$var reg 1 K error_coef $end
$var integer 32 L timeout [31:0] $end
$scope module fir_DUT $end
$var reg 1 M awready $end
$var wire 1 N awvalid $end
$var wire 12 O awaddr [11:0] $end
$var reg 1 P wready $end
$var wire 1 Q wvalid $end
$var wire 32 R wdata [31:0] $end
$var reg 1 S arready $end
$var wire 1 T arvalid $end
$var wire 12 U araddr [11:0] $end
$var wire 1 V rready $end
$var reg 1 W rvalid $end
$var reg 32 X rdata [31:0] $end
$var wire 1 Y ss_tvalid $end
$var wire 1 Z ss_tlast $end
$var wire 32 [ ss_tdata [31:0] $end
$var reg 1 \ ss_tready $end
$var wire 1 ] sm_tready $end
$var reg 1 ^ sm_tvalid $end
$var reg 1 _ sm_tlast $end
$var reg 32 ` sm_tdata [31:0] $end
$var reg 4 a tap_WE [3:0] $end
$var reg 1 b tap_EN $end
$var reg 32 c tap_Di [31:0] $end
$var reg 12 d tap_A [11:0] $end
$var wire 32 ; tap_Do [31:0] $end
$var reg 4 e data_WE [3:0] $end
$var reg 1 f data_EN $end
$var reg 32 g data_Di [31:0] $end
$var reg 12 h data_A [11:0] $end
$var wire 32 @ data_Do [31:0] $end
$var wire 1 i axis_clk $end
$var wire 1 j axis_rst_n $end
$var reg 3 k cstate [2:0] $end
$var reg 3 l nstate [2:0] $end
$var reg 1 m acc_done $end
$var reg 10 n total_count [9:0] $end
$var reg 4 o count [3:0] $end
$var reg 12 p data_index [11:0] $end
$var reg 1 q acc_wait $end
$var reg 1 r check_wait $end
$var reg 1 s start $end
$var reg 12 t index [11:0] $end
$var reg 12 u coef_index [11:0] $end
$var reg 32 v acc [31:0] $end
$var reg 1 w bram_ready $end
$var reg 1 x data_length $end
$upscope $end
$scope module tap_RAM $end
$var wire 1 y CLK $end
$var wire 4 7 WE [3:0] $end
$var wire 1 8 EN $end
$var wire 32 9 Di [31:0] $end
$var wire 32 ; Do [31:0] $end
$var wire 12 : A [11:0] $end
$var reg 12 z r_A [11:0] $end
$var reg 32 { Temp_D [31:0] $end
$upscope $end
$scope module data_RAM $end
$var wire 1 | CLK $end
$var wire 4 < WE [3:0] $end
$var wire 1 = EN $end
$var wire 32 > Di [31:0] $end
$var wire 32 @ Do [31:0] $end
$var wire 12 ? A [11:0] $end
$var reg 12 } r_A [11:0] $end
$var reg 32 ~ Temp_D [31:0] $end
$upscope $end
$scope task config_write $end
$var reg 12 !! addr [11:0] $end
$var reg 32 "! data [31:0] $end
$upscope $end
$scope task config_read_check $end
$var reg 12 #! addr [11:0] $end
$var reg 32 $! exp_data [31:0] $end
$var reg 32 %! mask [31:0] $end
$upscope $end
$scope task ss $end
$var reg 32 &! in1 [31:0] $end
$upscope $end
$scope task sm $end
$var reg 32 '! in2 [31:0] $end
$var reg 32 (! pcnt [31:0] $end
$upscope $end
$upscope $end
$enddefinitions $end
#0
$dumpvars
0!
b110100 !!
0"
b1001011000 "!
0#
bx #!
bx $
bx $!
0%
bx %!
bx &
b1 &!
0'
bx '!
x(
bx (!
x)
bx *
0+
bx ,
1-
b1 .
0/
00
11
02
bx 3
x4
05
06
bx 7
x8
bx 9
bx :
bx ;
bx <
x=
bx >
bx ?
bx @
b1001011000 A
b11111111111111111011000111100000 B
b11111111111111111011000111100001 C
b1 D
b1 E
b1001011000 F
b0 G
bx H
0I
0J
0K
b11110100001001000000 L
0M
0N
bx O
0P
0Q
bx R
0S
xT
bx U
xV
0W
bx X
1Y
0Z
b1 [
0\
1]
0^
x_
bx `
bx a
xb
bx c
bx d
bx e
xf
bx g
bx h
0i
0j
b0 k
b0 l
xm
bx n
bx o
bx p
xq
xr
xs
bx t
bx u
bx v
0w
xx
0y
bx z
bx {
0|
bx }
bx ~
$end
#5000
1#
b110100 $
1%
b1001011000 &
15
b11110100001000111111 L
1N
b110100 O
1Q
b1001011000 R
1i
b0 k
b0 l
b0 n
b0 o
b0 p
0q
0r
b0 t
b0 u
b0 v
1y
bx z
1|
bx }
#10000
05
0i
0y
0|
#15000
1!
1"
15
16
b11110100001000111110 L
1M
1P
1i
1j
b0 k
b0 n
b0 o
b0 p
0q
0r
b0 t
b0 u
b0 v
1y
bx z
1|
bx }
#20000
05
0i
0y
0|
#25000
b0 !!
b0 "!
0#
0%
15
b0 H
b11110100001000111101 L
1M
0N
1P
0Q
1i
b0 k
b0 l
b0 n
b0 o
b0 p
0q
0r
b0 t
b0 u
b0 v
0x
1y
bx z
1|
bx }
#30000
05
0i
0y
0|
#35000
1#
b0 $
1%
b0 &
15
b11110100001000111100 L
1N
b0 O
1Q
b0 R
1i
b0 k
b0 l
b0 n
b0 o
b0 p
0q
0r
b0 t
b0 u
b0 v
1y
bx z
1|
bx }
#40000
05
0i
0y
0|
#45000
0!
b100 !!
0"
b11111111111111111111111111110110 "!
0#
0%
15
b1111 7
18
b0 9
b0 :
bx ;
b1 H
b11110100001000111011 L
0M
0N
0P
0Q
b1111 a
1b
b0 c
b0 d
1i
b0 k
b0 l
b0 n
b0 o
b0 p
0q
0r
b0 t
b0 u
b0 v
1y
bx z
1|
bx }
#50000
05
0i
0y
0|
#55000
1#
b100 $
1%
b11111111111111111111111111110110 &
15
b0 ;
b11110100001000111010 L
1N
b100 O
1Q
b11111111111111111111111111110110 R
1i
b0 k
b0 l
b0 n
b0 o
b0 p
0q
0r
b0 t
b0 u
b0 v
1y
b0 z
1|
bx }
#60000
05
0i
0y
0|
#65000
1!
1"
15
b11110100001000111001 L
1M
1P
1i
b0 k
b0 n
b0 o
b0 p
0q
0r
b0 t
b0 u
b0 v
1y
b0 z
1|
bx }
#70000
05
0i
0y
0|
#75000
0!
b1000 !!
0"
b11111111111111111111111111110111 "!
0#
0%
15
b11111111111111111111111111110110 9
b100 :
b10 H
b11110100001000111000 L
0M
0N
0P
0Q
b1111 a
1b
b11111111111111111111111111110110 c
b100 d
1i
b0 k
b0 l
b0 n
b0 o
b0 p
0q
0r
b0 t
b0 u
b0 v
1y
b0 z
1|
bx }
#80000
05
0i
0y
0|
#85000
1#
b1000 $
1%
b11111111111111111111111111110111 &
15
b11111111111111111111111111110110 ;
b11110100001000110111 L
1N
b1000 O
1Q
b11111111111111111111111111110111 R
1i
b0 k
b0 l
b0 n
b0 o
b0 p
0q
0r
b0 t
b0 u
b0 v
1y
b100 z
1|
bx }
#90000
05
0i
0y
0|
#95000
1!
1"
15
b11110100001000110110 L
1M
1P
1i
b0 k
b0 n
b0 o
b0 p
0q
0r
b0 t
b0 u
b0 v
1y
b100 z
1|
bx }
#100000
05
0i
0y
0|
#105000
0!
b1100 !!
0"
b10111 "!
0#
0%
15
b11111111111111111111111111110111 9
b1000 :
b11 H
b11110100001000110101 L
0M
0N
0P
0Q
b1111 a
1b
b11111111111111111111111111110111 c
b1000 d
1i
b0 k
b0 l
b0 n
b0 o
b0 p
0q
0r
b0 t
b0 u
b0 v
1y
b100 z
1|
bx }
#110000
05
0i
0y
0|
#115000
1#
b1100 $
1%
b10111 &
15
b11111111111111111111111111110111 ;
b11110100001000110100 L
1N
b1100 O
1Q
b10111 R
1i
b0 k
b0 l
b0 n
b0 o
b0 p
0q
0r
b0 t
b0 u
b0 v
1y
b1000 z
1|
bx }
#120000
05
0i
0y
0|
#125000
1!
1"
15
b11110100001000110011 L
1M
1P
1i
b0 k
b0 n
b0 o
b0 p
0q
0r
b0 t
b0 u
b0 v
1y
b1000 z
1|
bx }
#130000
05
0i
0y
0|
#135000
0!
b10000 !!
0"
b111000 "!
0#
0%
15
b10111 9
b1100 :
b100 H
b11110100001000110010 L
0M
0N
0P
0Q
b1111 a
1b
b10111 c
b1100 d
1i
b0 k
b0 l
b0 n
b0 o
b0 p
0q
0r
b0 t
b0 u
b0 v
1y
b1000 z
1|
bx }
#140000
05
0i
0y
0|
#145000
1#
b10000 $
1%
b111000 &
15
b10111 ;
b11110100001000110001 L
1N
b10000 O
1Q
b111000 R
1i
b0 k
b0 l
b0 n
b0 o
b0 p
0q
0r
b0 t
b0 u
b0 v
1y
b1100 z
1|
bx }
#150000
05
0i
0y
0|
#155000
1!
1"
15
b11110100001000110000 L
1M
1P
1i
b0 k
b0 n
b0 o
b0 p
0q
0r
b0 t
b0 u
b0 v
1y
b1100 z
1|
bx }
#160000
05
0i
0y
0|
#165000
0!
b10100 !!
0"
b111111 "!
0#
0%
15
b111000 9
b10000 :
b101 H
b11110100001000101111 L
0M
0N
0P
0Q
b1111 a
1b
b111000 c
b10000 d
1i
b0 k
b0 l
b0 n
b0 o
b0 p
0q
0r
b0 t
b0 u
b0 v
1y
b1100 z
1|
bx }
#170000
05
0i
0y
0|
#175000
1#
b10100 $
1%
b111111 &
15
b111000 ;
b11110100001000101110 L
1N
b10100 O
1Q
b111111 R
1i
b0 k
b0 l
b0 n
b0 o
b0 p
0q
0r
b0 t
b0 u
b0 v
1y
b10000 z
1|
bx }
#180000
05
0i
0y
0|
#185000
1!
1"
15
b11110100001000101101 L
1M
1P
1i
b0 k
b0 n
b0 o
b0 p
0q
0r
b0 t
b0 u
b0 v
1y
b10000 z
1|
bx }
#190000
05
0i
0y
0|
#195000
0!
b11000 !!
0"
b111000 "!
0#
0%
15
b111111 9
b10100 :
b110 H
b11110100001000101100 L
0M
0N
0P
0Q
b1111 a
1b
b111111 c
b10100 d
1i
b0 k
b0 l
b0 n
b0 o
b0 p
0q
0r
b0 t
b0 u
b0 v
1y
b10000 z
1|
bx }
#200000
05
0i
0y
0|
#205000
1#
b11000 $
1%
b111000 &
15
b111111 ;
b11110100001000101011 L
1N
b11000 O
1Q
b111000 R
1i
b0 k
b0 l
b0 n
b0 o
b0 p
0q
0r
b0 t
b0 u
b0 v
1y
b10100 z
1|
bx }
#210000
05
0i
0y
0|
#215000
1!
1"
15
b11110100001000101010 L
1M
1P
1i
b0 k
b0 n
b0 o
b0 p
0q
0r
b0 t
b0 u
b0 v
1y
b10100 z
1|
bx }
#220000
05
0i
0y
0|
#225000
0!
b11100 !!
0"
b10111 "!
0#
0%
15
b111000 9
b11000 :
b111 H
b11110100001000101001 L
0M
0N
0P
0Q
b1111 a
1b
b111000 c
b11000 d
1i
b0 k
b0 l
b0 n
b0 o
b0 p
0q
0r
b0 t
b0 u
b0 v
1y
b10100 z
1|
bx }
#230000
05
0i
0y
0|
#235000
1#
b11100 $
1%
b10111 &
15
b111000 ;
b11110100001000101000 L
1N
b11100 O
1Q
b10111 R
1i
b0 k
b0 l
b0 n
b0 o
b0 p
0q
0r
b0 t
b0 u
b0 v
1y
b11000 z
1|
bx }
#240000
05
0i
0y
0|
#245000
1!
1"
15
b11110100001000100111 L
1M
1P
1i
b0 k
b0 n
b0 o
b0 p
0q
0r
b0 t
b0 u
b0 v
1y
b11000 z
1|
bx }
#250000
05
0i
0y
0|
#255000
0!
b100000 !!
0"
b11111111111111111111111111110111 "!
0#
0%
15
b10111 9
b11100 :
b1000 H
b11110100001000100110 L
0M
0N
0P
0Q
b1111 a
1b
b10111 c
b11100 d
1i
b0 k
b0 l
b0 n
b0 o
b0 p
0q
0r
b0 t
b0 u
b0 v
1y
b11000 z
1|
bx }
#260000
05
0i
0y
0|
#265000
1#
b100000 $
1%
b11111111111111111111111111110111 &
15
b10111 ;
b11110100001000100101 L
1N
b100000 O
1Q
b11111111111111111111111111110111 R
1i
b0 k
b0 l
b0 n
b0 o
b0 p
0q
0r
b0 t
b0 u
b0 v
1y
b11100 z
1|
bx }
#270000
05
0i
0y
0|
#275000
1!
1"
15
b11110100001000100100 L
1M
1P
1i
b0 k
b0 n
b0 o
b0 p
0q
0r
b0 t
b0 u
b0 v
1y
b11100 z
1|
bx }
#280000
05
0i
0y
0|
#285000
0!
b100100 !!
0"
b11111111111111111111111111110110 "!
0#
0%
15
b11111111111111111111111111110111 9
b100000 :
b1001 H
b11110100001000100011 L
0M
0N
0P
0Q
b1111 a
1b
b11111111111111111111111111110111 c
b100000 d
1i
b0 k
b0 l
b0 n
b0 o
b0 p
0q
0r
b0 t
b0 u
b0 v
1y
b11100 z
1|
bx }
#290000
05
0i
0y
0|
#295000
1#
b100100 $
1%
b11111111111111111111111111110110 &
15
b11111111111111111111111111110111 ;
b11110100001000100010 L
1N
b100100 O
1Q
b11111111111111111111111111110110 R
1i
b0 k
b0 l
b0 n
b0 o
b0 p
0q
0r
b0 t
b0 u
b0 v
1y
b100000 z
1|
bx }
#300000
05
0i
0y
0|
#305000
1!
1"
15
b11110100001000100001 L
1M
1P
1i
b0 k
b0 n
b0 o
b0 p
0q
0r
b0 t
b0 u
b0 v
1y
b100000 z
1|
bx }
#310000
05
0i
0y
0|
#315000
0!
b101000 !!
0"
b0 "!
0#
0%
15
b11111111111111111111111111110110 9
b100100 :
b1010 H
b11110100001000100000 L
0M
0N
0P
0Q
b1111 a
1b
b11111111111111111111111111110110 c
b100100 d
1i
b0 k
b0 l
b0 n
b0 o
b0 p
0q
0r
b0 t
b0 u
b0 v
1y
b100000 z
1|
bx }
#320000
05
0i
0y
0|
#325000
1#
b101000 $
1%
b0 &
15
b11111111111111111111111111110110 ;
b11110100001000011111 L
1N
b101000 O
1Q
b0 R
1i
b0 k
b0 l
b0 n
b0 o
b0 p
0q
0r
b0 t
b0 u
b0 v
1y
b100100 z
1|
bx }
#330000
05
0i
0y
0|
#335000
1!
1"
15
b11110100001000011110 L
1M
1P
1i
b0 k
b0 n
b0 o
b0 p
0q
0r
b0 t
b0 u
b0 v
1y
b100100 z
1|
bx }
#340000
05
0i
0y
0|
#345000
0!
0"
0#
b0 #!
b0 $!
0%
b11111111111111111111111111111111 %!
0)
15
b0 9
b101000 :
b0 H
b11110100001000011101 L
0M
0N
0P
0Q
0T
b1111 a
1b
b0 c
b101000 d
1i
b0 k
b0 l
b0 n
b0 o
b0 p
0q
0r
b0 t
b0 u
b0 v
1y
b100100 z
1|
bx }
#350000
05
0i
0y
0|
#355000
1(
1)
b0 *
15
b0 ;
b11110100001000011100 L
1T
b0 U
1V
1i
b0 k
b111 l
b0 n
b0 o
b0 p
0q
0r
b0 t
b0 u
b0 v
1y
b101000 z
1|
bx }
#360000
05
0i
0y
0|
#365000
15
b11110100001000011011 L
1i
b111 k
b111 l
b0 n
b0 o
b0 p
0q
0r
b0 t
b0 u
b0 v
1y
b101000 z
1|
bx }
#370000
05
0i
0y
0|
#375000
1'
15
b0 7
b0 :
b11110100001000011010 L
1S
b0 a
1b
b0 d
1i
b111 k
1y
b101000 z
1|
bx }
#380000
05
0i
0y
0|
#385000
0'
b0 ,
15
b0 ;
b11110100001000011001 L
0S
b0 X
b0 a
1b
b0 d
1i
b111 k
1w
1y
b0 z
1|
bx }
#390000
05
0i
0y
0|
#395000
1'
15
b11110100001000011000 L
1S
b0 a
1b
b0 d
1i
b111 k
1y
b0 z
1|
bx }
#400000
05
0i
0y
0|
#405000
0'
1+
15
b11110100001000010111 L
0S
1W
b0 X
b0 a
1b
b0 d
1i
b111 k
0w
1y
b0 z
1|
bx }
#410000
05
0i
0y
0|
#415000
b100 #!
b11111111111111111111111111110110 $!
b11111111111111111111111111111111 %!
0'
0)
0+
15
b1 H
b11110100001000010110 L
0S
0T
0W
b0 a
1b
b0 d
1i
b111 k
b111 l
1y
b0 z
1|
bx }
#420000
05
0i
0y
0|
#425000
1(
1)
b100 *
15
b11110100001000010101 L
1T
b100 U
1i
b111 k
b111 l
1y
b0 z
1|
bx }
#430000
05
0i
0y
0|
#435000
1'
15
b100 :
b11110100001000010100 L
1S
b0 a
1b
b100 d
1i
b111 k
1y
b0 z
1|
bx }
#440000
05
0i
0y
0|
#445000
0'
15
b11111111111111111111111111110110 ;
b11110100001000010011 L
0S
b0 X
b0 a
1b
b100 d
1i
b111 k
1w
1y
b100 z
1|
bx }
#450000
05
0i
0y
0|
#455000
1'
15
b11110100001000010010 L
1S
b0 a
1b
b100 d
1i
b111 k
1y
b100 z
1|
bx }
#460000
05
0i
0y
0|
#465000
0'
1+
b11111111111111111111111111110110 ,
15
b11110100001000010001 L
0S
1W
b11111111111111111111111111110110 X
b0 a
1b
b100 d
1i
b111 k
0w
1y
b100 z
1|
bx }
#470000
05
0i
0y
0|
#475000
b1000 #!
b11111111111111111111111111110111 $!
b11111111111111111111111111111111 %!
0'
0)
0+
15
b10 H
b11110100001000010000 L
0S
0T
0W
b0 a
1b
b100 d
1i
b111 k
b111 l
1y
b100 z
1|
bx }
#480000
05
0i
0y
0|
#485000
1(
1)
b1000 *
15
b11110100001000001111 L
1T
b1000 U
1i
b111 k
b111 l
1y
b100 z
1|
bx }
#490000
05
0i
0y
0|
#495000
1'
15
b1000 :
b11110100001000001110 L
1S
b0 a
1b
b1000 d
1i
b111 k
1y
b100 z
1|
bx }
#500000
05
0i
0y
0|
#505000
0'
15
b11111111111111111111111111110111 ;
b11110100001000001101 L
0S
b11111111111111111111111111110110 X
b0 a
1b
b1000 d
1i
b111 k
1w
1y
b1000 z
1|
bx }
#510000
05
0i
0y
0|
#515000
1'
15
b11110100001000001100 L
1S
b0 a
1b
b1000 d
1i
b111 k
1y
b1000 z
1|
bx }
#520000
05
0i
0y
0|
#525000
0'
1+
b11111111111111111111111111110111 ,
15
b11110100001000001011 L
0S
1W
b11111111111111111111111111110111 X
b0 a
1b
b1000 d
1i
b111 k
0w
1y
b1000 z
1|
bx }
#530000
05
0i
0y
0|
#535000
b1100 #!
b10111 $!
b11111111111111111111111111111111 %!
0'
0)
0+
15
b11 H
b11110100001000001010 L
0S
0T
0W
b0 a
1b
b1000 d
1i
b111 k
b111 l
1y
b1000 z
1|
bx }
#540000
05
0i
0y
0|
#545000
1(
1)
b1100 *
15
b11110100001000001001 L
1T
b1100 U
1i
b111 k
b111 l
1y
b1000 z
1|
bx }
#550000
05
0i
0y
0|
#555000
1'
15
b1100 :
b11110100001000001000 L
1S
b0 a
1b
b1100 d
1i
b111 k
1y
b1000 z
1|
bx }
#560000
05
0i
0y
0|
#565000
0'
15
b10111 ;
b11110100001000000111 L
0S
b11111111111111111111111111110111 X
b0 a
1b
b1100 d
1i
b111 k
1w
1y
b1100 z
1|
bx }
#570000
05
0i
0y
0|
#575000
1'
15
b11110100001000000110 L
1S
b0 a
1b
b1100 d
1i
b111 k
1y
b1100 z
1|
bx }
#580000
05
0i
0y
0|
#585000
0'
1+
b10111 ,
15
b11110100001000000101 L
0S
1W
b10111 X
b0 a
1b
b1100 d
1i
b111 k
0w
1y
b1100 z
1|
bx }
#590000
05
0i
0y
0|
#595000
b10000 #!
b111000 $!
b11111111111111111111111111111111 %!
0'
0)
0+
15
b100 H
b11110100001000000100 L
0S
0T
0W
b0 a
1b
b1100 d
1i
b111 k
b111 l
1y
b1100 z
1|
bx }
#600000
05
0i
0y
0|
#605000
1(
1)
b10000 *
15
b11110100001000000011 L
1T
b10000 U
1i
b111 k
b111 l
1y
b1100 z
1|
bx }
#610000
05
0i
0y
0|
#615000
1'
15
b10000 :
b11110100001000000010 L
1S
b0 a
1b
b10000 d
1i
b111 k
1y
b1100 z
1|
bx }
#620000
05
0i
0y
0|
#625000
0'
15
b111000 ;
b11110100001000000001 L
0S
b10111 X
b0 a
1b
b10000 d
1i
b111 k
1w
1y
b10000 z
1|
bx }
#630000
05
0i
0y
0|
#635000
1'
15
b11110100001000000000 L
1S
b0 a
1b
b10000 d
1i
b111 k
1y
b10000 z
1|
bx }
#640000
05
0i
0y
0|
#645000
0'
1+
b111000 ,
15
b11110100000111111111 L
0S
1W
b111000 X
b0 a
1b
b10000 d
1i
b111 k
0w
1y
b10000 z
1|
bx }
#650000
05
0i
0y
0|
#655000
b10100 #!
b111111 $!
b11111111111111111111111111111111 %!
0'
0)
0+
15
b101 H
b11110100000111111110 L
0S
0T
0W
b0 a
1b
b10000 d
1i
b111 k
b111 l
1y
b10000 z
1|
bx }
#660000
05
0i
0y
0|
#665000
1(
1)
b10100 *
15
b11110100000111111101 L
1T
b10100 U
1i
b111 k
b111 l
1y
b10000 z
1|
bx }
#670000
05
0i
0y
0|
#675000
1'
15
b10100 :
b11110100000111111100 L
1S
b0 a
1b
b10100 d
1i
b111 k
1y
b10000 z
1|
bx }
#680000
05
0i
0y
0|
#685000
0'
15
b111111 ;
b11110100000111111011 L
0S
b111000 X
b0 a
1b
b10100 d
1i
b111 k
1w
1y
b10100 z
1|
bx }
#690000
05
0i
0y
0|
#695000
1'
15
b11110100000111111010 L
1S
b0 a
1b
b10100 d
1i
b111 k
1y
b10100 z
1|
bx }
#700000
05
0i
0y
0|
#705000
0'
1+
b111111 ,
15
b11110100000111111001 L
0S
1W
b111111 X
b0 a
1b
b10100 d
1i
b111 k
0w
1y
b10100 z
1|
bx }
#710000
05
0i
0y
0|
#715000
b11000 #!
b111000 $!
b11111111111111111111111111111111 %!
0'
0)
0+
15
b110 H
b11110100000111111000 L
0S
0T
0W
b0 a
1b
b10100 d
1i
b111 k
b111 l
1y
b10100 z
1|
bx }
#720000
05
0i
0y
0|
#725000
1(
1)
b11000 *
15
b11110100000111110111 L
1T
b11000 U
1i
b111 k
b111 l
1y
b10100 z
1|
bx }
#730000
05
0i
0y
0|
#735000
1'
15
b11000 :
b11110100000111110110 L
1S
b0 a
1b
b11000 d
1i
b111 k
1y
b10100 z
1|
bx }
#740000
05
0i
0y
0|
#745000
0'
15
b111000 ;
b11110100000111110101 L
0S
b111111 X
b0 a
1b
b11000 d
1i
b111 k
1w
1y
b11000 z
1|
bx }
#750000
05
0i
0y
0|
#755000
1'
15
b11110100000111110100 L
1S
b0 a
1b
b11000 d
1i
b111 k
1y
b11000 z
1|
bx }
#760000
05
0i
0y
0|
#765000
0'
1+
b111000 ,
15
b11110100000111110011 L
0S
1W
b111000 X
b0 a
1b
b11000 d
1i
b111 k
0w
1y
b11000 z
1|
bx }
#770000
05
0i
0y
0|
#775000
b11100 #!
b10111 $!
b11111111111111111111111111111111 %!
0'
0)
0+
15
b111 H
b11110100000111110010 L
0S
0T
0W
b0 a
1b
b11000 d
1i
b111 k
b111 l
1y
b11000 z
1|
bx }
#780000
05
0i
0y
0|
#785000
1(
1)
b11100 *
15
b11110100000111110001 L
1T
b11100 U
1i
b111 k
b111 l
1y
b11000 z
1|
bx }
#790000
05
0i
0y
0|
#795000
1'
15
b11100 :
b11110100000111110000 L
1S
b0 a
1b
b11100 d
1i
b111 k
1y
b11000 z
1|
bx }
#800000
05
0i
0y
0|
#805000
0'
15
b10111 ;
b11110100000111101111 L
0S
b111000 X
b0 a
1b
b11100 d
1i
b111 k
1w
1y
b11100 z
1|
bx }
#810000
05
0i
0y
0|
#815000
1'
15
b11110100000111101110 L
1S
b0 a
1b
b11100 d
1i
b111 k
1y
b11100 z
1|
bx }
#820000
05
0i
0y
0|
#825000
0'
1+
b10111 ,
15
b11110100000111101101 L
0S
1W
b10111 X
b0 a
1b
b11100 d
1i
b111 k
0w
1y
b11100 z
1|
bx }
#830000
05
0i
0y
0|
#835000
b100000 #!
b11111111111111111111111111110111 $!
b11111111111111111111111111111111 %!
0'
0)
0+
15
b1000 H
b11110100000111101100 L
0S
0T
0W
b0 a
1b
b11100 d
1i
b111 k
b111 l
1y
b11100 z
1|
bx }
#840000
05
0i
0y
0|
#845000
1(
1)
b100000 *
15
b11110100000111101011 L
1T
b100000 U
1i
b111 k
b111 l
1y
b11100 z
1|
bx }
#850000
05
0i
0y
0|
#855000
1'
15
b100000 :
b11110100000111101010 L
1S
b0 a
1b
b100000 d
1i
b111 k
1y
b11100 z
1|
bx }
#860000
05
0i
0y
0|
#865000
0'
15
b11111111111111111111111111110111 ;
b11110100000111101001 L
0S
b10111 X
b0 a
1b
b100000 d
1i
b111 k
1w
1y
b100000 z
1|
bx }
#870000
05
0i
0y
0|
#875000
1'
15
b11110100000111101000 L
1S
b0 a
1b
b100000 d
1i
b111 k
1y
b100000 z
1|
bx }
#880000
05
0i
0y
0|
#885000
0'
1+
b11111111111111111111111111110111 ,
15
b11110100000111100111 L
0S
1W
b11111111111111111111111111110111 X
b0 a
1b
b100000 d
1i
b111 k
0w
1y
b100000 z
1|
bx }
#890000
05
0i
0y
0|
#895000
b100100 #!
b11111111111111111111111111110110 $!
b11111111111111111111111111111111 %!
0'
0)
0+
15
b1001 H
b11110100000111100110 L
0S
0T
0W
b0 a
1b
b100000 d
1i
b111 k
b111 l
1y
b100000 z
1|
bx }
#900000
05
0i
0y
0|
#905000
1(
1)
b100100 *
15
b11110100000111100101 L
1T
b100100 U
1i
b111 k
b111 l
1y
b100000 z
1|
bx }
#910000
05
0i
0y
0|
#915000
1'
15
b100100 :
b11110100000111100100 L
1S
b0 a
1b
b100100 d
1i
b111 k
1y
b100000 z
1|
bx }
#920000
05
0i
0y
0|
#925000
0'
15
b11111111111111111111111111110110 ;
b11110100000111100011 L
0S
b11111111111111111111111111110111 X
b0 a
1b
b100100 d
1i
b111 k
1w
1y
b100100 z
1|
bx }
#930000
05
0i
0y
0|
#935000
1'
15
b11110100000111100010 L
1S
b0 a
1b
b100100 d
1i
b111 k
1y
b100100 z
1|
bx }
#940000
05
0i
0y
0|
#945000
0'
1+
b11111111111111111111111111110110 ,
15
b11110100000111100001 L
0S
1W
b11111111111111111111111111110110 X
b0 a
1b
b100100 d
1i
b111 k
0w
1y
b100100 z
1|
bx }
#950000
05
0i
0y
0|
#955000
b101000 #!
b0 $!
b11111111111111111111111111111111 %!
0'
0)
0+
15
b1010 H
b11110100000111100000 L
0S
0T
0W
b0 a
1b
b100100 d
1i
b111 k
b111 l
1y
b100100 z
1|
bx }
#960000
05
0i
0y
0|
#965000
1(
1)
b101000 *
15
b11110100000111011111 L
1T
b101000 U
1i
b111 k
b111 l
1y
b100100 z
1|
bx }
#970000
05
0i
0y
0|
#975000
1'
15
b101000 :
b11110100000111011110 L
1S
b0 a
1b
b101000 d
1i
b111 k
1y
b100100 z
1|
bx }
#980000
05
0i
0y
0|
#985000
0'
15
b0 ;
b11110100000111011101 L
0S
b11111111111111111111111111110110 X
b0 a
1b
b101000 d
1i
b111 k
1w
1y
b101000 z
1|
bx }
#990000
05
0i
0y
0|
#995000
1'
15
b11110100000111011100 L
1S
b0 a
1b
b101000 d
1i
b111 k
1y
b101000 z
1|
bx }
#1000000
05
0i
0y
0|
#1005000
0'
1+
b0 ,
15
b11110100000111011011 L
0S
1W
b0 X
b0 a
1b
b101000 d
1i
b111 k
0w
1y
b101000 z
1|
bx }
#1010000
05
0i
0y
0|
#1015000
0'
0)
0+
15
b1011 H
b11110100000111011010 L
0S
0T
0W
b0 a
1b
b101000 d
1i
b111 k
b111 l
1y
b101000 z
1|
bx }
#1020000
05
0i
0y
0|
#1025000
b110000 !!
b1 "!
0#
0%
15
b11110100000111011001 L
1i
b111 k
1y
b101000 z
1|
bx }
#1030000
05
0i
0y
0|
#1035000
1#
b110000 $
1%
b1 &
15
b11110100000111011000 L
1N
b110000 O
1Q
b1 R
1i
b111 k
b0 l
1y
b101000 z
1|
bx }
#1040000
05
0i
0y
0|
#1045000
15
b11110100000111010111 L
1i
b0 k
b0 l
1y
b101000 z
1|
bx }
#1050000
05
0i
0y
0|
#1055000
1!
1"
15
b11110100000111010110 L
1M
1P
1i
b0 k
b0 n
b0 o
b0 p
0q
0r
b0 t
b0 u
b0 v
1y
b101000 z
1|
bx }
#1060000
05
0i
0y
0|
#1065000
0#
0%
15
b11110100000111010101 L
1M
0N
1P
0Q
1i
b0 k
b1 l
b0 n
b0 o
b0 p
0q
0r
1s
b0 t
b0 u
b0 v
1y
b101000 z
1|
bx }
#1070000
05
0i
0y
0|
#1075000
15
b11110100000111010100 L
1i
b1 k
b1 l
b0 n
b0 o
b0 p
0q
0r
b0 t
b0 u
b0 v
1y
b101000 z
1|
bx }
#1080000
05
0i
0y
0|
#1085000
10
15
b11110100000111010011 L
1\
1i
b1 k
b10 l
1y
b101000 z
1|
bx }
#1090000
05
0i
0y
0|
#1095000
b10 &!
1-
b10 .
00
15
b0 :
b1111 <
1=
b1 >
b0 ?
bx @
b1 G
b11110100000111010010 L
b10 [
0\
b0 a
1b
b0 d
b1111 e
1f
b1 g
b0 h
1i
b10 k
b10 l
b1 n
b0 o
b0 p
b100 t
b0 u
b0 v
1y
b101000 z
1|
bx }
